nLevel nLength nSpeed bInvisible ... files ... [nLives]
5
1 10 5 0 easylvlx.txt EASY1.bmp
2 15 5 0 easylvlx.txt EASY2.bmp
3 20 4 0 easylvlx.txt EASY3.bmp
4 25 4 0 easylvlx.txt EASY4.bmp
5 30 4 0 easylvlx.txt EASY5.bmp